%YAML 1.1
%TAG !u! tag:unity3d.com,2011:
--- !u!78 &1
TagManager:
  serializedVersion: 2
  tags:
  - Event
  - Enemy
  - Turret
  - Upgrade
  - Collider
  - Bullet
  - Spawner
  - Train
  - Health
  - Place
  layers:
  - Default
  - TransparentFX
  - Ignore Raycast
  - 
  - Water
  - UI
  - Interactable
  - whatISGround
  - 
  - 
  - 
  - 
  - 
  - 
  - 
  - 
  - 
  - 
  - 
  - 
  - 
  - 
  - 
  - 
  - 
  - 
  - 
  - 
  - 
  - 
  - 
  - 
  m_SortingLayers:
  - name: BG
    uniqueID: 2098736481
    locked: 0
  - name: Default
    uniqueID: 0
    locked: 0
